admiral
…
admiral

dverse - simple example

library(dverse)
library(admiral)

# universe ----------------------------------------------------------------

universe <- c("admiral")
document_universe(universe)   # 186 x 7

# A tibble: 186 × 7
   topic                      alias          title concept type  keyword package
   <chr>                      <chr>          <chr> <chr>   <chr> <chr>   <chr>  
 1 %>%                        %>%            Pipe… reexpo… help  <NA>    admiral
 2 admiral-package            admiral, admi… admi… intern… help  intern… admiral
 3 admiral_adlb               admiral_adlb   Lab … datase… help  datase… admiral
 4 admiral_adlb               admiral_adlb   Lab … Datase… help  datase… admiral
 5 admiral_adsl               admiral_adsl   Subj… datase… help  datase… admiral
 6 admiral_adsl               admiral_adsl   Subj… Datase… help  datase… admiral
 7 adsl                       adsl           Crea… <NA>    vign… <NA>    admiral
 8 assert_parameters_argument assert_parame… Asse… <NA>    help  intern… admiral
 9 atoxgr_criteria_ctcv4      atoxgr_criter… Meta… metada… help  <NA>    admiral
10 atoxgr_criteria_ctcv5      atoxgr_criter… Meta… metada… help  <NA>    admiral
# ℹ 176 more rows

# manual ------------------------------------------------------------------

manual <- "https://pharmaverse.github.io/{package}/reference/{topic}.html"
document_universe(universe, url_template = manual)

# A tibble: 186 × 7
   topic                               alias title concept type  keyword package
   <chr>                               <chr> <chr> <chr>   <chr> <chr>   <chr>  
 1 <a href=https://pharmaverse.github… %>%   Pipe… reexpo… help  <NA>    admiral
 2 <a href=https://pharmaverse.github… admi… admi… intern… help  intern… admiral
 3 <a href=https://pharmaverse.github… admi… Lab … datase… help  datase… admiral
 4 <a href=https://pharmaverse.github… admi… Lab … Datase… help  datase… admiral
 5 <a href=https://pharmaverse.github… admi… Subj… datase… help  datase… admiral
 6 <a href=https://pharmaverse.github… admi… Subj… Datase… help  datase… admiral
 7 <a href=https://pharmaverse.github… adsl  Crea… <NA>    vign… <NA>    admiral
 8 <a href=https://pharmaverse.github… asse… Asse… <NA>    help  intern… admiral
 9 <a href=https://pharmaverse.github… atox… Meta… metada… help  <NA>    admiral
10 <a href=https://pharmaverse.github… atox… Meta… metada… help  <NA>    admiral
# ℹ 176 more rows
…
