…
##  tidy, as tibble, one column
x1 <- l %>% tibble()
# # A tibble: 132 × 1
#    .
#    <list>
#  1 <list [20]>
#  2 <list [20]>
#  3 <list [20]>
#  4 <list [20]>
#  5 <list [20]>
#  6 <list [20]>
#  7 <list [20]>
#  8 <list [20]>
#  9 <list [20]>
# 10 <list [20]>
# # ℹ 122 more rows
…
