…
head(x4)
# # A tibble: 6 × 5
#   title uri                               title1 children     .
#   <chr> <chr>                             <chr>  <list>       <list>
# 1 menu  <NA>                              Mozil… <named list> <named list>
# 2 menu  https://github.com/jarun/Buku     jarun… <named list> <named list>
# 3 menu  https://github.com/r-lib/remotes  r-lib… <named list> <named list>
# 4 menu  https://usethis.r-lib.org/articl… pr gi… <named list> <named list>
# 5 menu  https://quantifyinghealth.com/in… Inter… <named list> <named list>
# 6 menu  https://support.apple.com/guide/… Locat… <named list> <named list>
x4 %>% dplyr::select(c("title", "uri", "title1"))
# # A tibble: 1,509 × 3
#    title uri                                                        title1
#    <chr> <chr>                                                      <chr>
#  1 menu  <NA>                                                       "Mozi…
#  2 menu  https://github.com/jarun/Buku                              "jaru…
#  3 menu  https://github.com/r-lib/remotes                           "r-li…
#  4 menu  https://usethis.r-lib.org/articles/pr-functions.html       "pr g…
#  5 menu  https://quantifyinghealth.com/interpret-logistic-regressi… "Inte…
#  6 menu  https://support.apple.com/guide/icloud/locate-a-device-mm… "Loca…
#  7 menu  https://bookdown.org/markhoff/social_network_analysis/     "R | …
#  8 menu  https://dplyr.tidyverse.org/articles/programming.html      "Env …
#  9 menu  https://dcl-prog.stanford.edu/tidy-eval-section.html       "12 I…
# 10 menu  https://www.meetup.com/twincitiesrug/                      "Twin…
# # ℹ 1,499 more rows
# # ℹ Use `print(n = ...)` to see more rows
x4 %>% select(c("title1"))
# # A tibble: 1,509 × 1
#    title1
#    <chr>
#  1 "Mozilla Firefox"
#  2 "jarun/buku: |  bookmark manager"
#  3 "r-lib/remotes: Install R packages from GitHub, GitLab, Bitbucket, git…
#  4 "pr github! r helpers"
#  5 "Interpret Logistic Regression Coefficients [For Beginners] – QUANTIFY…
#  6 "Locate a device in Find Devices on iCloud.com - Apple Support"
#  7 "R | book | Methods for Network Analysis"
#  8 "Env var   Or    Data var "
#  9 "12 Introduction | Functional Programming r tidyeval "
# 10 "Twin Cities R User Group (TCRUG) (Minneapolis, MN) | Meetup"
# # ℹ 1,499 more rows
# # ℹ Use `print(n = ...)` to see more rows
```
